{
	0x8bae2088, 0x7451e033, 0x8bae20a8, 0x7451e02f, 
	0x8bae20bc, 0x7451dfdd, 0x8bae2085, 0x7451e02f, 
	0x8bae20a8, 0x7451e01e, 0x8bae20b7, 0x7451e025, 
	0x8bae2063, 0x7451e016, 0x8bae20b2, 0x7451e032, 
	0x8bae2063, 0x7451e011, 0x8bae20a4, 0x7451e028, 
	0x8bae20a8, 0x7451dfdd, 0x8bae2070, 0x7451dfdd, 
	0x8bae2097, 0x7451e025, 0x8bae20a8, 0x7451dfdd, 
	0x8bae2093, 0x7451e02c, 0x8bae20af, 0x7451e026, 
	0x8bae20a6, 0xd1853064, 0x7451dfbe
};
